id,name,model_id:id,group_id:id,perm_read,perm_write,perm_create,perm_unlink
access_challenge_register_vehicle,challenge.register.vehicle,model_challenge_register_vehicle,,1,1,1,1
access_challenge_settings_vehicle,challenge.settings.vehicle,model_challenge_settings_vehicle,,1,1,1,1
